[gd_scene load_steps=5 format=2]

[ext_resource path="res://levels/WorldBase.tscn" type="PackedScene" id=1]
[ext_resource path="res://objects/Car.tscn" type="PackedScene" id=2]
[ext_resource path="res://objects/Barrel.tscn" type="PackedScene" id=3]
[ext_resource path="res://images/corkboard.png" type="Texture" id=4]

[node name="Prison" instance=ExtResource( 1 )]
zombie_count = 100
next_level = "res://levels/School.tscn"

[node name="Map" parent="Navigation" index="0"]
tile_data = PoolIntArray( -1, 0, 4, -65536, 0, 4, -65535, 0, 4, -65534, 0, 4, -65533, 0, 4, -65532, 0, 4, -65531, 0, 4, -65530, 0, 4, -65529, 0, 4, -65528, 0, 4, -65527, 0, 4, -65526, 0, 4, -65525, 0, 4, -65524, 0, 4, -65523, 0, 4, -65522, 0, 4, -65521, 0, 4, -65520, 0, 4, -65519, 0, 4, -65518, 0, 4, -65517, 0, 4, -65516, 0, 4, -65515, 0, 4, -65514, 0, 4, -65513, 0, 4, -65512, 0, 4, -65511, 0, 4, -65510, 0, 4, -65509, 0, 4, -65508, 0, 4, -65507, 0, 4, -65506, 0, 4, -65505, 0, 4, -65504, 0, 4, 65535, 0, 4, 0, 0, 4, 1, 0, 7, 2, 536870912, 7, 3, 0, 4, 4, 0, 4, 5, 0, 65538, 6, 536870912, 65538, 7, 0, 4, 8, 0, 4, 9, 0, 4, 10, 0, 4, 11, 0, 4, 12, 0, 4, 13, 0, 65538, 14, 536870912, 65538, 15, 0, 4, 16, 0, 4, 17, 0, 7, 18, 536870912, 7, 19, 0, 4, 20, 0, 4, 21, 0, 4, 22, 0, 4, 23, 0, 4, 24, 0, 4, 25, 0, 7, 26, 536870912, 7, 27, 0, 4, 28, 0, 4, 29, 0, 65538, 30, 536870912, 65538, 31, 0, 4, 32, 0, 4, 131071, 0, 4, 65536, 0, 4, 65537, 0, 65536, 65538, 536870912, 65536, 65539, 0, 4, 65540, 0, 4, 65541, 0, 65539, 65542, 536870912, 65539, 65543, 0, 4, 65544, 0, 4, 65545, 0, 4, 65546, 0, 4, 65547, 0, 4, 65548, 0, 4, 65549, 0, 65539, 65550, 536870912, 65539, 65551, 0, 4, 65552, 0, 4, 65553, 0, 65536, 65554, 536870912, 65536, 65555, 0, 4, 65556, 0, 4, 65557, 0, 4, 65558, 0, 4, 65559, 0, 4, 65560, 0, 4, 65561, 0, 65536, 65562, 536870912, 65536, 65563, 0, 4, 65564, 0, 4, 65565, 0, 65539, 65566, 536870912, 65539, 65567, 0, 4, 65568, 0, 4, 196607, 0, 4, 131072, -536870912, 2, 131073, -536870912, 2, 131074, -536870912, 2, 131075, -536870912, 2, 131076, -536870912, 2, 131077, -536870912, 2, 131078, -536870912, 2, 131079, -536870912, 2, 131080, -536870912, 2, 131081, -536870912, 2, 131082, -536870912, 2, 131083, -536870912, 2, 131084, -536870912, 2, 131085, -536870912, 2, 131086, -536870912, 2, 131087, -536870912, 2, 131088, -536870912, 2, 131089, -536870912, 2, 131090, -536870912, 2, 131091, -536870912, 2, 131092, -536870912, 2, 131093, -536870912, 2, 131094, -536870912, 2, 131095, -536870912, 2, 131096, -536870912, 2, 131097, -536870912, 2, 131098, -536870912, 2, 131099, -536870912, 2, 131100, -536870912, 2, 131101, -536870912, 2, 131102, -536870912, 2, 131103, -536870912, 2, 131104, 0, 4, 262143, 0, 4, 196608, -536870912, 2, 196609, -536870912, 2, 196610, -536870912, 2, 196611, -536870912, 2, 196612, -536870912, 2, 196613, -536870912, 2, 196614, -536870912, 2, 196615, -536870912, 2, 196616, -536870912, 2, 196617, -536870912, 2, 196618, -536870912, 2, 196619, -536870912, 2, 196620, -536870912, 2, 196621, -536870912, 2, 196622, -536870912, 2, 196623, -536870912, 2, 196624, -536870912, 2, 196625, -536870912, 2, 196626, -536870912, 2, 196627, -536870912, 2, 196628, -536870912, 2, 196629, -536870912, 2, 196630, -536870912, 2, 196631, -536870912, 2, 196632, -536870912, 2, 196633, -536870912, 2, 196634, -536870912, 2, 196635, -536870912, 2, 196636, -536870912, 2, 196637, -536870912, 2, 196638, -536870912, 2, 196639, -536870912, 2, 196640, 0, 4, 327679, 0, 4, 262144, -536870912, 2, 262145, -536870912, 2, 262146, -536870912, 2, 262147, -536870912, 2, 262148, -536870912, 2, 262149, -536870912, 2, 262150, -536870912, 2, 262151, -536870912, 2, 262152, -536870912, 2, 262153, -536870912, 2, 262154, -536870912, 2, 262155, -536870912, 2, 262156, -536870912, 2, 262157, -536870912, 2, 262158, -536870912, 2, 262159, -536870912, 2, 262160, -536870912, 2, 262161, -536870912, 2, 262162, -536870912, 2, 262163, -536870912, 2, 262164, -536870912, 2, 262165, -536870912, 2, 262166, -536870912, 2, 262167, -536870912, 2, 262168, -536870912, 2, 262169, -536870912, 2, 262170, -536870912, 2, 262171, -536870912, 2, 262172, -536870912, 2, 262173, -536870912, 2, 262174, -536870912, 2, 262175, -536870912, 2, 262176, 0, 4, 393215, 0, 4, 327680, -536870912, 2, 327681, -536870912, 2, 327682, -536870912, 2, 327683, -536870912, 2, 327684, -536870912, 2, 327685, -536870912, 2, 327686, -536870912, 2, 327687, -536870912, 2, 327688, -536870912, 2, 327689, -536870912, 2, 327690, -536870912, 2, 327691, -536870912, 2, 327692, -536870912, 2, 327693, -536870912, 2, 327694, -536870912, 2, 327695, -536870912, 2, 327696, -536870912, 2, 327697, -536870912, 2, 327698, -536870912, 2, 327699, -536870912, 2, 327700, -536870912, 2, 327701, -536870912, 2, 327702, -536870912, 2, 327703, -536870912, 2, 327704, -536870912, 2, 327705, -536870912, 2, 327706, -536870912, 2, 327707, -536870912, 2, 327708, -536870912, 2, 327709, -536870912, 2, 327710, -536870912, 2, 327711, -536870912, 2, 327712, 0, 4, 458751, 0, 4, 393216, -536870912, 2, 393217, -536870912, 2, 393218, -536870912, 2, 393219, -536870912, 2, 393220, -536870912, 2, 393221, -536870912, 2, 393222, -536870912, 2, 393223, -536870912, 2, 393224, -536870912, 2, 393225, -536870912, 2, 393226, -536870912, 2, 393227, -536870912, 2, 393228, -536870912, 2, 393229, -536870912, 2, 393230, -536870912, 2, 393231, -536870912, 2, 393232, -536870912, 2, 393233, -536870912, 2, 393234, -536870912, 2, 393235, -536870912, 2, 393236, -536870912, 2, 393237, -536870912, 2, 393238, -536870912, 2, 393239, -536870912, 2, 393240, -536870912, 2, 393241, -536870912, 2, 393242, -536870912, 2, 393243, -536870912, 2, 393244, -536870912, 2, 393245, -536870912, 2, 393246, -536870912, 2, 393247, -536870912, 2, 393248, 0, 4, 524287, 0, 4, 458752, -536870912, 2, 458753, -536870912, 2, 458754, -536870912, 2, 458755, -536870912, 2, 458756, -536870912, 2, 458757, -536870912, 2, 458758, -536870912, 2, 458759, -536870912, 2, 458760, -536870912, 2, 458761, -536870912, 2, 458762, -536870912, 2, 458763, -536870912, 2, 458764, -536870912, 2, 458765, -536870912, 2, 458766, -536870912, 2, 458767, -536870912, 2, 458768, -536870912, 2, 458769, -536870912, 2, 458770, -536870912, 2, 458771, -536870912, 2, 458772, -536870912, 2, 458773, -536870912, 2, 458774, -536870912, 2, 458775, -536870912, 2, 458776, -536870912, 2, 458777, -536870912, 2, 458778, -536870912, 2, 458779, -536870912, 2, 458780, -536870912, 2, 458781, -536870912, 2, 458782, -536870912, 2, 458783, -536870912, 2, 458784, 0, 4, 589823, 0, 4, 524288, -536870912, 2, 524289, -536870912, 2, 524290, -536870912, 2, 524291, -536870912, 2, 524292, -536870912, 2, 524293, -536870912, 2, 524294, -536870912, 2, 524295, -536870912, 2, 524296, -536870912, 2, 524297, -536870912, 2, 524298, -536870912, 2, 524299, -536870912, 2, 524300, -536870912, 2, 524301, -536870912, 2, 524302, -536870912, 2, 524303, -536870912, 2, 524304, -536870912, 2, 524305, -536870912, 2, 524306, -536870912, 2, 524307, -536870912, 2, 524308, -536870912, 2, 524309, -536870912, 2, 524310, -536870912, 2, 524311, -536870912, 2, 524312, -536870912, 2, 524313, -536870912, 2, 524314, -536870912, 2, 524315, -536870912, 2, 524316, -536870912, 2, 524317, -536870912, 2, 524318, -536870912, 2, 524319, -536870912, 2, 524320, 0, 4, 655359, 0, 4, 589824, -536870912, 2, 589825, -536870912, 2, 589826, -536870912, 2, 589827, -536870912, 2, 589828, -536870912, 2, 589829, -536870912, 2, 589830, -536870912, 2, 589831, -536870912, 2, 589832, -536870912, 2, 589833, -536870912, 2, 589834, -536870912, 2, 589835, -536870912, 2, 589836, -536870912, 2, 589837, -536870912, 2, 589838, -536870912, 2, 589839, -536870912, 2, 589840, -536870912, 2, 589841, -536870912, 2, 589842, -536870912, 2, 589843, -536870912, 2, 589844, -536870912, 2, 589845, -536870912, 2, 589846, -536870912, 2, 589847, -536870912, 2, 589848, -536870912, 2, 589849, -536870912, 2, 589850, -536870912, 2, 589851, -536870912, 2, 589852, -536870912, 2, 589853, -536870912, 2, 589854, -536870912, 2, 589855, -536870912, 2, 589856, 0, 4, 720895, 0, 4, 655360, -536870912, 2, 655361, -536870912, 2, 655362, -536870912, 2, 655363, -536870912, 2, 655364, -536870912, 2, 655365, -536870912, 2, 655366, -536870912, 2, 655367, -536870912, 2, 655368, -536870912, 2, 655369, -536870912, 2, 655370, -536870912, 2, 655371, -536870912, 2, 655372, -536870912, 2, 655373, -536870912, 2, 655374, -536870912, 2, 655375, -536870912, 2, 655376, -536870912, 2, 655377, -536870912, 2, 655378, -536870912, 2, 655379, -536870912, 2, 655380, -536870912, 2, 655381, -536870912, 2, 655382, -536870912, 2, 655383, -536870912, 2, 655384, -536870912, 2, 655385, -536870912, 2, 655386, -536870912, 2, 655387, -536870912, 2, 655388, -536870912, 2, 655389, -536870912, 2, 655390, -536870912, 2, 655391, -536870912, 2, 655392, 0, 4, 786431, 0, 4, 720896, -536870912, 2, 720897, -536870912, 2, 720898, -536870912, 2, 720899, -536870912, 2, 720900, -536870912, 2, 720901, -536870912, 2, 720902, -536870912, 2, 720903, -536870912, 2, 720904, -536870912, 2, 720905, -536870912, 2, 720906, -536870912, 2, 720907, -536870912, 2, 720908, -536870912, 2, 720909, -536870912, 2, 720910, -536870912, 2, 720911, -536870912, 2, 720912, -536870912, 2, 720913, -536870912, 2, 720914, -536870912, 2, 720915, -536870912, 2, 720916, -536870912, 2, 720917, -536870912, 2, 720918, -536870912, 2, 720919, -536870912, 2, 720920, -536870912, 2, 720921, -536870912, 2, 720922, -536870912, 2, 720923, -536870912, 2, 720924, -536870912, 2, 720925, -536870912, 2, 720926, -536870912, 2, 720927, -536870912, 2, 720928, 0, 4, 851967, 0, 4, 786432, -536870912, 2, 786433, -536870912, 2, 786434, -536870912, 2, 786435, -536870912, 2, 786436, -536870912, 2, 786437, -536870912, 2, 786438, -536870912, 2, 786439, -536870912, 2, 786440, -536870912, 2, 786441, -536870912, 2, 786442, -536870912, 2, 786443, -536870912, 2, 786444, -536870912, 2, 786445, -536870912, 2, 786446, -536870912, 2, 786447, -536870912, 2, 786448, -536870912, 2, 786449, -536870912, 2, 786450, -536870912, 2, 786451, -536870912, 2, 786452, -536870912, 2, 786453, -536870912, 2, 786454, -536870912, 2, 786455, -536870912, 2, 786456, -536870912, 2, 786457, -536870912, 2, 786458, -536870912, 2, 786459, -536870912, 2, 786460, -536870912, 2, 786461, -536870912, 2, 786462, -536870912, 2, 786463, -536870912, 2, 786464, 0, 4, 917503, 0, 4, 851968, -536870912, 2, 851969, -536870912, 2, 851970, -536870912, 2, 851971, -536870912, 2, 851972, -536870912, 2, 851973, -536870912, 2, 851974, -536870912, 2, 851975, -536870912, 2, 851976, -536870912, 2, 851977, -536870912, 2, 851978, -536870912, 2, 851979, -536870912, 2, 851980, -536870912, 2, 851981, -536870912, 2, 851982, -536870912, 2, 851983, -536870912, 2, 851984, -536870912, 2, 851985, -536870912, 2, 851986, -536870912, 2, 851987, -536870912, 2, 851988, -536870912, 2, 851989, -536870912, 2, 851990, -536870912, 2, 851991, -536870912, 2, 851992, -536870912, 2, 851993, -536870912, 2, 851994, -536870912, 2, 851995, -536870912, 2, 851996, -536870912, 2, 851997, -536870912, 2, 851998, -536870912, 2, 851999, -536870912, 2, 852000, 0, 4, 983039, 0, 4, 917504, -536870912, 2, 917505, -536870912, 2, 917506, -536870912, 2, 917507, -536870912, 2, 917508, -536870912, 2, 917509, -536870912, 2, 917510, -536870912, 2, 917511, -536870912, 2, 917512, -536870912, 2, 917513, -536870912, 2, 917514, -536870912, 2, 917515, -536870912, 2, 917516, -536870912, 2, 917517, -536870912, 2, 917518, -536870912, 2, 917519, -536870912, 2, 917520, -536870912, 2, 917521, -536870912, 2, 917522, -536870912, 2, 917523, -536870912, 2, 917524, -536870912, 2, 917525, -536870912, 2, 917526, -536870912, 2, 917527, -536870912, 2, 917528, -536870912, 2, 917529, -536870912, 2, 917530, -536870912, 2, 917531, -536870912, 2, 917532, -536870912, 2, 917533, -536870912, 2, 917534, -536870912, 2, 917535, -536870912, 2, 917536, 0, 4, 1048575, 0, 4, 983040, -536870912, 2, 983041, -536870912, 2, 983042, -536870912, 2, 983043, -536870912, 2, 983044, -536870912, 2, 983045, -536870912, 2, 983046, -536870912, 2, 983047, -536870912, 2, 983048, -536870912, 2, 983049, -536870912, 2, 983050, -536870912, 2, 983051, -536870912, 2, 983052, -536870912, 2, 983053, -536870912, 2, 983054, -536870912, 2, 983055, -536870912, 2, 983056, -536870912, 2, 983057, -536870912, 2, 983058, -536870912, 2, 983059, -536870912, 2, 983060, -536870912, 2, 983061, -536870912, 2, 983062, -536870912, 2, 983063, -536870912, 2, 983064, -536870912, 2, 983065, -536870912, 2, 983066, -536870912, 2, 983067, -536870912, 2, 983068, -536870912, 2, 983069, -536870912, 2, 983070, -536870912, 2, 983071, -536870912, 2, 983072, 0, 4, 1114111, 0, 4, 1048576, -536870912, 2, 1048577, -536870912, 2, 1048578, -536870912, 2, 1048579, -536870912, 2, 1048580, -536870912, 2, 1048581, -536870912, 2, 1048582, -536870912, 2, 1048583, -536870912, 2, 1048584, -536870912, 2, 1048585, -536870912, 2, 1048586, -536870912, 2, 1048587, -536870912, 2, 1048588, -536870912, 2, 1048589, -536870912, 2, 1048590, -536870912, 2, 1048591, -536870912, 2, 1048592, -536870912, 2, 1048593, -536870912, 2, 1048594, -536870912, 2, 1048595, -536870912, 2, 1048596, -536870912, 2, 1048597, -536870912, 2, 1048598, -536870912, 2, 1048599, -536870912, 2, 1048600, -536870912, 2, 1048601, -536870912, 2, 1048602, -536870912, 2, 1048603, -536870912, 2, 1048604, -536870912, 2, 1048605, -536870912, 2, 1048606, -536870912, 2, 1048607, -536870912, 2, 1048608, 0, 4, 1179647, 0, 4, 1114112, -536870912, 2, 1114113, -536870912, 2, 1114114, -536870912, 2, 1114115, -536870912, 2, 1114116, -536870912, 2, 1114117, -536870912, 2, 1114118, -536870912, 2, 1114119, -536870912, 2, 1114120, -536870912, 2, 1114121, -536870912, 2, 1114122, -536870912, 2, 1114123, -536870912, 2, 1114124, -536870912, 2, 1114125, -536870912, 2, 1114126, -536870912, 2, 1114127, -536870912, 2, 1114128, -536870912, 2, 1114129, -536870912, 2, 1114130, -536870912, 2, 1114131, -536870912, 2, 1114132, -536870912, 2, 1114133, -536870912, 2, 1114134, -536870912, 2, 1114135, -536870912, 2, 1114136, -536870912, 2, 1114137, -536870912, 2, 1114138, -536870912, 2, 1114139, -536870912, 2, 1114140, -536870912, 2, 1114141, -536870912, 2, 1114142, -536870912, 2, 1114143, -536870912, 2, 1114144, 0, 4, 1245183, 0, 4, 1179648, -536870912, 2, 1179649, -536870912, 2, 1179650, -536870912, 2, 1179651, -536870912, 2, 1179652, -536870912, 2, 1179653, -536870912, 2, 1179654, -536870912, 2, 1179655, -536870912, 2, 1179656, -536870912, 2, 1179657, -536870912, 2, 1179658, -536870912, 2, 1179659, -536870912, 2, 1179660, -536870912, 2, 1179661, -536870912, 2, 1179662, -536870912, 2, 1179663, -536870912, 2, 1179664, -536870912, 2, 1179665, -536870912, 2, 1179666, -536870912, 2, 1179667, -536870912, 2, 1179668, -536870912, 2, 1179669, -536870912, 2, 1179670, -536870912, 2, 1179671, -536870912, 2, 1179672, -536870912, 2, 1179673, -536870912, 2, 1179674, -536870912, 2, 1179675, -536870912, 2, 1179676, -536870912, 2, 1179677, -536870912, 2, 1179678, -536870912, 2, 1179679, -536870912, 2, 1179680, 0, 4, 1310719, 0, 4, 1245184, 0, 4, 1245185, 0, 4, 1245186, 0, 4, 1245187, 0, 4, 1245188, 0, 4, 1245189, 0, 4, 1245190, 0, 4, 1245191, 0, 4, 1245192, 0, 4, 1245193, 0, 4, 1245194, 0, 4, 1245195, 0, 4, 1245196, 0, 4, 1245197, 0, 4, 1245198, 0, 4, 1245199, 0, 4, 1245200, 0, 4, 1245201, 0, 4, 1245202, 0, 4, 1245203, 0, 4, 1245204, 0, 4, 1245205, 0, 4, 1245206, 0, 4, 1245207, 0, 4, 1245208, 0, 4, 1245209, 0, 4, 1245210, 0, 4, 1245211, 0, 4, 1245212, 0, 4, 1245213, 0, 4, 1245214, 0, 4, 1245215, 0, 4, 1245216, 0, 4 )

[node name="ColorRect" type="ColorRect" parent="Navigation/Map" index="0"]
margin_top = 64.0
margin_right = 1024.0
margin_bottom = 608.0
color = Color( 0, 0, 0, 0.333333 )

[node name="Car" parent="Navigation" index="1" instance=ExtResource( 2 )]
position = Vector2( 104, 384 )
rotation = 1.80292

[node name="Car2" parent="Navigation" index="2" instance=ExtResource( 2 )]
position = Vector2( 968, 96 )
rotation = -1.91288

[node name="Barrel" parent="Navigation" index="3" instance=ExtResource( 3 )]
position = Vector2( 360, 224 )

[node name="Barrel2" parent="Navigation" index="4" instance=ExtResource( 3 )]
position = Vector2( 576, 512 )

[node name="Barrel3" parent="Navigation" index="5" instance=ExtResource( 3 )]
position = Vector2( 560, 192 )

[node name="Barrel4" parent="Navigation" index="6" instance=ExtResource( 3 )]
position = Vector2( 768, 464 )

[node name="Barrel5" parent="Navigation" index="7" instance=ExtResource( 3 )]
position = Vector2( 824, 248 )

[node name="Barrel6" parent="Navigation" index="8" instance=ExtResource( 3 )]
position = Vector2( 232, 328 )

[node name="Barrel7" parent="Navigation" index="9" instance=ExtResource( 3 )]
position = Vector2( 488, 416 )

[node name="Camera" parent="." index="1"]
limit_left = -32
limit_top = -32
limit_right = 1056
limit_bottom = 640

[node name="Corkboard" type="Sprite" parent="." index="2"]
position = Vector2( 320, 16 )
texture = ExtResource( 4 )

[node name="Corkboard2" type="Sprite" parent="." index="3"]
position = Vector2( 696, 16 )
texture = ExtResource( 4 )
